…
    ## Parsed with column specification:
    ## cols(
    ##   date = col_character(),
    ##   close = col_double()
    ## )

``` r
snp
```

    ## # A tibble: 787 x 3
    ##    year  month     close
    ##    <chr> <chr>     <dbl>
    ##  1 1950  January    17.0
    ##  2 1950  February   17.2
    ##  3 1950  March      17.3
    ##  4 1950  April      18.0
    ##  5 1950  May        18.8
    ##  6 1950  June       17.7
    ##  7 1950  July       17.8
    ##  8 1950  August     18.4
    ##  9 1950  September  19.5
    ## 10 1950  October    19.5
    ## # … with 777 more rows
…
``` r
unemployment
```

    ## # A tibble: 816 x 3
    ##     year month     percent_unemployed
    ##    <dbl> <chr>                  <dbl>
    ##  1  1948 January                  3.4
    ##  2  1948 February                 3.8
    ##  3  1948 March                    4  
    ##  4  1948 April                    3.9
    ##  5  1948 May                      3.5
    ##  6  1948 June                     3.6
    ##  7  1948 July                     3.6
    ##  8  1948 August                   3.9
    ##  9  1948 September                3.8
    ## 10  1948 October                  3.7
    ## # … with 806 more rows

Merge snp and pols\_month:

``` r
snp_pols_month=
full_join(snp, pols_month, by=c("year","month")) %>%
  mutate(year=as.integer(year))
snp_pols_month
```

    ## # A tibble: 823 x 10
    ##     year month close gov_gop sen_gop rep_gop gov_dem sen_dem rep_dem
    ##    <int> <chr> <dbl>   <dbl>   <dbl>   <dbl>   <dbl>   <dbl>   <dbl>
    ##  1  1950 Janu…  17.0      18      44     177      29      57     269
    ##  2  1950 Febr…  17.2      18      44     177      29      57     269
    ##  3  1950 March  17.3      18      44     177      29      57     269
    ##  4  1950 April  18.0      18      44     177      29      57     269
    ##  5  1950 May    18.8      18      44     177      29      57     269
    ##  6  1950 June   17.7      18      44     177      29      57     269
    ##  7  1950 July   17.8      18      44     177      29      57     269
    ##  8  1950 Augu…  18.4      18      44     177      29      57     269
    ##  9  1950 Sept…  19.5      18      44     177      29      57     269
    ## 10  1950 Octo…  19.5      18      44     177      29      57     269
    ## # … with 813 more rows, and 1 more variable: president <chr>

Merge above dataset with unemployment:

``` r
snp_pols_unemployment=
full_join(snp_pols_month, unemployment, by=c("year","month"))
snp_pols_unemployment
```

    ## # A tibble: 828 x 11
    ##     year month close gov_gop sen_gop rep_gop gov_dem sen_dem rep_dem
    ##    <dbl> <chr> <dbl>   <dbl>   <dbl>   <dbl>   <dbl>   <dbl>   <dbl>
    ##  1  1950 Janu…  17.0      18      44     177      29      57     269
    ##  2  1950 Febr…  17.2      18      44     177      29      57     269
    ##  3  1950 March  17.3      18      44     177      29      57     269
    ##  4  1950 April  18.0      18      44     177      29      57     269
    ##  5  1950 May    18.8      18      44     177      29      57     269
    ##  6  1950 June   17.7      18      44     177      29      57     269
    ##  7  1950 July   17.8      18      44     177      29      57     269
    ##  8  1950 Augu…  18.4      18      44     177      29      57     269
    ##  9  1950 Sept…  19.5      18      44     177      29      57     269
    ## 10  1950 Octo…  19.5      18      44     177      29      57     269
    ## # … with 818 more rows, and 2 more variables: president <chr>,
    ## #   percent_unemployed <dbl>
